{
  "status":"ok",
  "details": {
    "patients":[
      {
        "code": "pac_0001",
        "identity_document": {
          "number":"11111110"
        },
        "name":{
          "name": "Felix",
          "family_name_1": "Vargas",
          "family_name_2": ""
        },
        "mobile_phone": "+51994319990"
      },
      {
        "code": "pac_0002",
        "identity_document": {
          "number":"11111111"
        },
        "name":{
          "name": "Kevin",
          "family_name_1": "Javier",
          "family_name_2": ""
        },
        "mobile_phone": "+51924017549"
      },
      {
        "code": "pac_0003",
        "identity_document": {
          "number":"11111112"
        },
        "name":{
          "name": "Luis",
          "family_name_1": "Sakihama",
          "family_name_2": ""
        },
        "mobile_phone": "+51966422904"
      },
      {
        "code": "pac_0004",
        "identity_document": {
          "number":"11111113"
        },
        "name":{
          "name": "Bitzer",
          "family_name_1": "Arotoma",
          "family_name_2": ""
        },
        "mobile_phone": "+51970975705"
      },
      {
        "code": "pac_0005",
        "identity_document": {
          "number":"11111114"
        },
        "name":{
          "name": "Victor",
          "family_name_1": "Quizpe",
          "family_name_2": ""
        },
        "mobile_phone": "+51929139079"
      },
      {
        "code": "pac_0006",
        "identity_document": {
          "number":"11111115"
        },
        "name":{
          "name": "Jhonny",
          "family_name_1": "Ramos",
          "family_name_2": ""
        },
        "mobile_phone": "+51990246064"
      },
      {
        "code": "pac_0007",
        "identity_document": {
          "number":"11111116"
        },
        "name":{
          "name": "Fiorella",
          "family_name_1": "Krapp",
          "family_name_2": ""
        },
        "mobile_phone": "+51922221127"
      },
      {
        "code": "pac_0008",
        "identity_document": {
          "number":"11111119"
        },
        "name":{
          "name": "Carlos",
          "family_name_1": "Krapp Lopez",
          "family_name_2": ""
        },
        "mobile_phone": "+51959610014"
      },
      {
        "code": "pac_0009",
        "identity_document": {
          "number":"22222222"
        },
        "name":{
          "name": "Jose Carlos",
          "family_name_1": "Veliz Rosas",
          "family_name_2": ""
        },
        "mobile_phone": "+51949287859"
      },
      {
        "code": "pac_0010",
        "identity_document": {
          "number":"33333333"
        },
        "name":{
          "name": "Fiorella",
          "family_name_1": "Krapp Lopez",
          "family_name_2": ""
        },
        "mobile_phone": "+51922221127"
      },
      {
        "code": "pac_0011",
        "identity_document": {
          "number":"66666666"
        },
        "name":{
          "name": "Enrique",
          "family_name_1": "Cornejo Cisneros",
          "family_name_2": ""
        },
        "mobile_phone": "+51922221151"
      },
      {
        "code": "pac_0012",
        "identity_document": {
          "number":"88888888"
        },
        "name":{
          "name": "Camille",
          "family_name_1": "Webb Camminati",
          "family_name_2": ""
        },
        "mobile_phone": "+51952388777"
      },
      {
        "code": "pac_0013",
        "identity_document": {
          "number":"99999999"
        },
        "name":{
          "name": "Mauricio",
          "family_name_1": "La Rosa",
          "family_name_2": ""
        },
        "mobile_phone": "+51941055623"
      }
    ]
  }
}